1. create database myshop;

2. -show databases;
   - use myshop;
 a. create table users(id int, name varchar(255), email varchar(255), password  varchar(255));
 b. create table items(id int, name varchar(255), description varchar(255), price int, stock int, category_id int);
 c. create table categories(id int, name varchar(255));

3. a. INSERT into users VALUES
(null,'john doe','john@doe.com','john123'),
(null,'jane doe','jane@doe.com','jenita123');
   b. insert into categories value
(null, 'gadget'),
(null, 'cloth'),
(null, 'men'),
(null, 'women'),
(null, 'branded');
   c. insert into items value
(null, 'sumsang b50', 'hape keren merek sumsang', 4000000 , 100 , 1 ),
(null, 'Uniklooh', 'baju keren dari brand ternama', 500000 , 50 , 2 ),
(null, 'IMHO  Watch', 'jam tangan anak yang jujur banget', 2000000 , 10 , 1 );

4.


5.

